<?xml version="1.0" encoding="UTF-8" standalone="no"?>
<!DOCTYPE svg PUBLIC "-//W3C//DTD SVG 1.1//EN"
 "http://www.w3.org/Graphics/SVG/1.1/DTD/svg11.dtd">
<!-- Generated by graphviz version 2.47.0 (20210316.0004)
 -->
<!-- Title: dependencies Pages: 1 -->
<svg width="504pt" height="284pt"
 viewBox="0.00 0.00 504.00 284.00" xmlns="http://www.w3.org/2000/svg" xmlns:xlink="http://www.w3.org/1999/xlink">
<g id="graph0" class="graph" transform="scale(1 1) rotate(0) translate(4 280)">
<title>dependencies</title>
<polygon fill="white" stroke="transparent" points="-4,4 -4,-280 500,-280 500,4 -4,4"/>
<text text-anchor="start" x="227.01" y="-42.4" font-family="Times-12" font-weight="bold" font-size="14.00">Legend</text>
<polygon fill="#ffffb3" stroke="transparent" points="14,-10 14,-30 34,-30 34,-10 14,-10"/>
<text text-anchor="start" x="37.63" y="-15.4" font-family="Times-12" font-size="14.00"> &#160;Declarations</text>
<polygon fill="#8dd3c7" stroke="transparent" points="127,-10 127,-30 147,-30 147,-10 127,-10"/>
<text text-anchor="start" x="150.73" y="-15.4" font-family="Times-12" font-size="14.00"> &#160;Module</text>
<polygon fill="#80b1d3" stroke="transparent" points="213,-10 213,-30 233,-30 233,-10 213,-10"/>
<text text-anchor="start" x="236.78" y="-15.4" font-family="Times-12" font-size="14.00"> &#160;Bootstrap</text>
<polygon fill="#fdb462" stroke="transparent" points="310,-10 310,-30 330,-30 330,-10 310,-10"/>
<text text-anchor="start" x="333.67" y="-15.4" font-family="Times-12" font-size="14.00"> &#160;Providers</text>
<polygon fill="#fb8072" stroke="transparent" points="406,-10 406,-30 426,-30 426,-10 406,-10"/>
<text text-anchor="start" x="429.73" y="-15.4" font-family="Times-12" font-size="14.00"> &#160;Exports</text>
<g id="clust1" class="cluster">
<title>cluster_OtpModule</title>
<polygon fill="none" stroke="black" stroke-dasharray="1,5" points="117,-70 117,-268 379,-268 379,-70 117,-70"/>
</g>
<g id="clust3" class="cluster">
<title>cluster_OtpModule_imports</title>
<polygon fill="none" stroke="black" points="257,-78 257,-130 371,-130 371,-78 257,-78"/>
</g>
<g id="clust4" class="cluster">
<title>cluster_OtpModule_exports</title>
<polygon fill="none" stroke="black" points="201,-208 201,-260 299,-260 299,-208 201,-208"/>
</g>
<g id="clust6" class="cluster">
<title>cluster_OtpModule_providers</title>
<polygon fill="none" stroke="black" points="125,-78 125,-130 249,-130 249,-78 125,-78"/>
</g>
<!-- PrismaModule -->
<g id="node1" class="node">
<title>PrismaModule</title>
<polygon fill="#8dd3c7" stroke="black" points="363.43,-122 360.43,-126 339.43,-126 336.43,-122 264.57,-122 264.57,-86 363.43,-86 363.43,-122"/>
<text text-anchor="middle" x="314" y="-99.8" font-family="Times,serif" font-size="14.00">PrismaModule</text>
</g>
<!-- OtpModule -->
<g id="node2" class="node">
<title>OtpModule</title>
<polygon fill="#8dd3c7" stroke="black" points="290.05,-187 287.05,-191 266.05,-191 263.05,-187 209.95,-187 209.95,-151 290.05,-151 290.05,-187"/>
<text text-anchor="middle" x="250" y="-164.8" font-family="Times,serif" font-size="14.00">OtpModule</text>
</g>
<!-- PrismaModule&#45;&gt;OtpModule -->
<g id="edge1" class="edge">
<title>PrismaModule&#45;&gt;OtpModule</title>
<path fill="none" stroke="black" d="M277.53,-122.11C277.53,-122.11 277.53,-140.99 277.53,-140.99"/>
<polygon fill="black" stroke="black" points="274.03,-140.99 277.53,-150.99 281.03,-140.99 274.03,-140.99"/>
</g>
<!-- OtpService  -->
<g id="node3" class="node">
<title>OtpService </title>
<polygon fill="#fb8072" stroke="black" points="291.48,-252 208.52,-252 208.52,-216 291.48,-216 291.48,-252"/>
<text text-anchor="middle" x="250" y="-229.8" font-family="Times,serif" font-size="14.00">OtpService </text>
</g>
<!-- OtpModule&#45;&gt;OtpService  -->
<g id="edge2" class="edge">
<title>OtpModule&#45;&gt;OtpService </title>
<path fill="none" stroke="black" stroke-dasharray="5,2" d="M250,-187.11C250,-187.11 250,-205.99 250,-205.99"/>
<polygon fill="black" stroke="black" points="246.5,-205.99 250,-215.99 253.5,-205.99 246.5,-205.99"/>
</g>
<!-- OtpService -->
<g id="node4" class="node">
<title>OtpService</title>
<ellipse fill="#fdb462" stroke="black" cx="187" cy="-104" rx="54.45" ry="18"/>
<text text-anchor="middle" x="187" y="-99.8" font-family="Times,serif" font-size="14.00">OtpService</text>
</g>
<!-- OtpService&#45;&gt;OtpModule -->
<g id="edge3" class="edge">
<title>OtpService&#45;&gt;OtpModule</title>
<path fill="none" stroke="black" d="M225.6,-116.84C225.6,-116.84 225.6,-140.52 225.6,-140.52"/>
<polygon fill="black" stroke="black" points="222.1,-140.52 225.6,-150.52 229.1,-140.52 222.1,-140.52"/>
</g>
</g>
</svg>
