<?xml version="1.0" encoding="UTF-8" standalone="no"?>
<!DOCTYPE svg PUBLIC "-//W3C//DTD SVG 1.1//EN"
 "http://www.w3.org/Graphics/SVG/1.1/DTD/svg11.dtd">
<!-- Generated by graphviz version 2.47.0 (20210316.0004)
 -->
<!-- Title: dependencies Pages: 1 -->
<svg width="694pt" height="284pt"
 viewBox="0.00 0.00 694.00 284.00" xmlns="http://www.w3.org/2000/svg" xmlns:xlink="http://www.w3.org/1999/xlink">
<g id="graph0" class="graph" transform="scale(1 1) rotate(0) translate(4 280)">
<title>dependencies</title>
<polygon fill="white" stroke="transparent" points="-4,4 -4,-280 690,-280 690,4 -4,4"/>
<text text-anchor="start" x="322.01" y="-42.4" font-family="Times-12" font-weight="bold" font-size="14.00">Legend</text>
<polygon fill="#ffffb3" stroke="transparent" points="109,-10 109,-30 129,-30 129,-10 109,-10"/>
<text text-anchor="start" x="132.63" y="-15.4" font-family="Times-12" font-size="14.00"> &#160;Declarations</text>
<polygon fill="#8dd3c7" stroke="transparent" points="222,-10 222,-30 242,-30 242,-10 222,-10"/>
<text text-anchor="start" x="245.73" y="-15.4" font-family="Times-12" font-size="14.00"> &#160;Module</text>
<polygon fill="#80b1d3" stroke="transparent" points="308,-10 308,-30 328,-30 328,-10 308,-10"/>
<text text-anchor="start" x="331.78" y="-15.4" font-family="Times-12" font-size="14.00"> &#160;Bootstrap</text>
<polygon fill="#fdb462" stroke="transparent" points="405,-10 405,-30 425,-30 425,-10 405,-10"/>
<text text-anchor="start" x="428.67" y="-15.4" font-family="Times-12" font-size="14.00"> &#160;Providers</text>
<polygon fill="#fb8072" stroke="transparent" points="501,-10 501,-30 521,-30 521,-10 501,-10"/>
<text text-anchor="start" x="524.73" y="-15.4" font-family="Times-12" font-size="14.00"> &#160;Exports</text>
<g id="clust1" class="cluster">
<title>cluster_ReferralCodeModule</title>
<polygon fill="none" stroke="black" stroke-dasharray="1,5" points="8,-70 8,-268 678,-268 678,-70 8,-70"/>
</g>
<g id="clust6" class="cluster">
<title>cluster_ReferralCodeModule_providers</title>
<polygon fill="none" stroke="black" points="242,-78 242,-130 670,-130 670,-78 242,-78"/>
</g>
<g id="clust3" class="cluster">
<title>cluster_ReferralCodeModule_imports</title>
<polygon fill="none" stroke="black" points="16,-78 16,-130 234,-130 234,-78 16,-78"/>
</g>
<g id="clust4" class="cluster">
<title>cluster_ReferralCodeModule_exports</title>
<polygon fill="none" stroke="black" points="183,-208 183,-260 335,-260 335,-208 183,-208"/>
</g>
<!-- PrismaModule -->
<g id="node1" class="node">
<title>PrismaModule</title>
<polygon fill="#8dd3c7" stroke="black" points="226.43,-122 223.43,-126 202.43,-126 199.43,-122 127.57,-122 127.57,-86 226.43,-86 226.43,-122"/>
<text text-anchor="middle" x="177" y="-99.8" font-family="Times,serif" font-size="14.00">PrismaModule</text>
</g>
<!-- ReferralCodeModule -->
<g id="node3" class="node">
<title>ReferralCodeModule</title>
<polygon fill="#8dd3c7" stroke="black" points="326.45,-187 323.45,-191 302.45,-191 299.45,-187 191.55,-187 191.55,-151 326.45,-151 326.45,-187"/>
<text text-anchor="middle" x="259" y="-164.8" font-family="Times,serif" font-size="14.00">ReferralCodeModule</text>
</g>
<!-- PrismaModule&#45;&gt;ReferralCodeModule -->
<g id="edge1" class="edge">
<title>PrismaModule&#45;&gt;ReferralCodeModule</title>
<path fill="none" stroke="black" d="M208.87,-122.11C208.87,-122.11 208.87,-140.99 208.87,-140.99"/>
<polygon fill="black" stroke="black" points="205.37,-140.99 208.87,-150.99 212.37,-140.99 205.37,-140.99"/>
</g>
<!-- UserModule -->
<g id="node2" class="node">
<title>UserModule</title>
<polygon fill="#8dd3c7" stroke="black" points="109.98,-122 106.98,-126 85.98,-126 82.98,-122 24.02,-122 24.02,-86 109.98,-86 109.98,-122"/>
<text text-anchor="middle" x="67" y="-99.8" font-family="Times,serif" font-size="14.00">UserModule</text>
</g>
<!-- UserModule&#45;&gt;ReferralCodeModule -->
<g id="edge2" class="edge">
<title>UserModule&#45;&gt;ReferralCodeModule</title>
<path fill="none" stroke="black" d="M67,-122.11C67,-141.34 67,-169 67,-169 67,-169 181.31,-169 181.31,-169"/>
<polygon fill="black" stroke="black" points="181.31,-172.5 191.31,-169 181.31,-165.5 181.31,-172.5"/>
</g>
<!-- ReferralCodeService  -->
<g id="node4" class="node">
<title>ReferralCodeService </title>
<polygon fill="#fb8072" stroke="black" points="327.38,-252 190.62,-252 190.62,-216 327.38,-216 327.38,-252"/>
<text text-anchor="middle" x="259" y="-229.8" font-family="Times,serif" font-size="14.00">ReferralCodeService </text>
</g>
<!-- ReferralCodeModule&#45;&gt;ReferralCodeService  -->
<g id="edge3" class="edge">
<title>ReferralCodeModule&#45;&gt;ReferralCodeService </title>
<path fill="none" stroke="black" stroke-dasharray="5,2" d="M259,-187.11C259,-187.11 259,-205.99 259,-205.99"/>
<polygon fill="black" stroke="black" points="255.5,-205.99 259,-215.99 262.5,-205.99 255.5,-205.99"/>
</g>
<!-- ReferralCodeRepository -->
<g id="node5" class="node">
<title>ReferralCodeRepository</title>
<ellipse fill="#fdb462" stroke="black" cx="557" cy="-104" rx="105.35" ry="18"/>
<text text-anchor="middle" x="557" y="-99.8" font-family="Times,serif" font-size="14.00">ReferralCodeRepository</text>
</g>
<!-- ReferralCodeRepository&#45;&gt;ReferralCodeModule -->
<g id="edge4" class="edge">
<title>ReferralCodeRepository&#45;&gt;ReferralCodeModule</title>
<path fill="none" stroke="black" d="M557,-122.11C557,-141.34 557,-169 557,-169 557,-169 336.62,-169 336.62,-169"/>
<polygon fill="black" stroke="black" points="336.62,-165.5 326.62,-169 336.62,-172.5 336.62,-165.5"/>
</g>
<!-- ReferralCodeService -->
<g id="node6" class="node">
<title>ReferralCodeService</title>
<ellipse fill="#fdb462" stroke="black" cx="342" cy="-104" rx="92.01" ry="18"/>
<text text-anchor="middle" x="342" y="-99.8" font-family="Times,serif" font-size="14.00">ReferralCodeService</text>
</g>
<!-- ReferralCodeService&#45;&gt;ReferralCodeModule -->
<g id="edge5" class="edge">
<title>ReferralCodeService&#45;&gt;ReferralCodeModule</title>
<path fill="none" stroke="black" d="M288.24,-118.75C288.24,-118.75 288.24,-140.59 288.24,-140.59"/>
<polygon fill="black" stroke="black" points="284.74,-140.59 288.24,-150.59 291.74,-140.59 284.74,-140.59"/>
</g>
</g>
</svg>
